ID,EMPLOYEE ID,FULL NAME,FIRST NAME,LAST NAME,DATE OF BIRTH,GENDER,MARITAL STATUS,ADDRESS 1,ADDRESS 2,ADDRESS CITY,ADDRESS STATE,ADDRESS ZIP,ADDRESS COUNTRY,C_ADDRESS 1,C_ADDRESS 2,C_ADDRESS CITY,C_ADDRESS STATE,C_ADDRESS ZIP,C_ADDRESS COUNTRY,WORK EMAIL,OTHER EMAIL,PHONE 1,PHONE 2,BLOOD GROUP,EMERGENCY CONTACT DETAILS,EMERGENCY CONTACT PERSON,SPOUSE NAME,JOINING DATE,RESIGN DATE,EMPLOYMENT STATUS,DESIGNATION,DEPARTMENT,LOCATION,BANK ACCOUNT NUMBER,IFSC CODE,BANK NAME,BRANCH,PAN NUMBER
1,M1066,ABDUL JAHEED M,ABDUL JAHEED,M. Abdul subhan ,1.7.1992,male,single,"15/972, s.k road, ",renigunta,Chittor,Andhra Pradesh,517520,INDIA,,,,,,,abdul@mistvfx.local, abduljaheed91@gmail.com  ,9000733667,,,,,,11.6.2017,-,Working,Jr.Executive,Data -IO,Chennai,,,,,
2,M1020,SREEDEVI,SREEDEVI,Anandan,11.5.1995,female,married,"Subramniyan street, Sekar nagar",Jafferkhanpet,Chennai,Tamil Nadu,600083,INDIA,,,,,,,sree@mistvfx.local,sreedevianandan11@yahoo.in,9841130922,,,,,,9.6.2017,-,Working,Sr.Executive,FINANCE,Chennai,,,,,
3,M1003,JAVED JAFFER. A,JAVED JAFFER,Abibullah K,23.11.1989,male,married,"No.7, Pachaiamman Nagar, ","1st Street, Minjur",Chennai,Tamil Nadu,601203,INDIA,,,,,,,javed@mistvfx.local,javedjaffer1989@gmail.com,7845278717,,,,,,14.10.2015,-,Working,Sr. HR,HR,Chennai,,,,,
4,M1099,SASIDHARAN M,SASIDHARAN,Murugesan,24.09.1988,male,married,"80A. Sumithra Nagar, ",Poonamallee,Chennai,Tamil Nadu,600056,INDIA,,,,,,,sasidharan@mistvfx.local,sasidharan.hr@gmail.com,9884794231,,,,,,12.4.2017,-,Working,Sr.Executive,HR,Chennai,,,,,
5,M1136,PAVITHRA M,PAVITHRA,Manavalan,26.11.1992,female,single,"No.9, 3rd street, 2nd cross street, E.B Colony, ",Adambakkam,Chennai,Tamil Nadu,600088,INDIA,,,,,,,pavithra@mistvfx.local,pavi2462@gmail.com,9384615474,,,,,,25.10.2018,-,Working,Sr.Executive,HR,Chennai,,,,,
6,M1011,SYED RAYEES P,SYED RAYEES,Peer Mohammad,28.05.1989,male,married,-,-,Chennai,Tamil Nadu,600045,INDIA,,,,,,,rayees@mistvfx.local,srayees70@gmail.com,9094758194,,,,,,10.12.2016,-,Working,Lead,IT,Chennai,,,,,
7,M1104,NAGARAJAN R,NAGARAJAN,Rajagopal,5.12.1991,male,single,"116,Palayathottam/Puthupatti,Vellarivelli,",Edappadi,Salem,Tamil Nadu,637101,INDIA,,,,,,,nagaraj@mistvfx.local,nagamca91@gmail.com,8973805410,,,,,,25.11.2017,-,Working,Mid.Executive,IT,Chennai,,,,,
8,M1077,NEELAKANDA MOORTHY S,NEELAKANDA MOORTHY,Sundaralingam,25.07.1987,male,single,"6-221, Manavalan street, kothamangalam, ",Alangudi TK,Pudukottai,Tamil Nadu,614624,INDIA,,,,,,,moorthi@mistvfx.local,moorthysn@yahoo.com,9094146700,,,,,,2.5.2018,-,Working,Mid.Executive,IT,Chennai,,,,,
9,M1018,VINAYAK V,VINAYAK,Venkatesh ,11.6.1991,male,single,"9, Santhosh Nagar, ",Dharapuram Road,Udumalpet,Tamil Nadu,642126,INDIA,,,,,,,vinayak@mistvfx.local,vinayakv.1991@gmail.com,9994020030,,,,,,1.6.2015,-,Working,Lead,MM,Chennai,,,,,
10,M1024,JOSE ALEX,JOSE ALEX, Alex J Kanichai,28.07.1989,male,married,"Kanichai house,Konnackamali po, ",jose puram,Idukki,Kerala,685604,INDIA,,,,,,,jose@mistvfx.local,josealex@live.in,8056194359,,,,,,13.07.2015,-,Working,Lead,MM,Chennai,,,,,
11,M1088,THIRUMOORTHY P,THIRUMOORTHY,Parthiban ,14.07.1989,male,single,"3/39, Perivyirsangili, Perundurai, ",Chinnavirsangili,Erode,Tamil Nadu,638056,INDIA,,,,,,,thiru@mistvfx.local,anitiru_07@gmail.com,9787032888,,,,,,1.7.2016,-,Working,Mid. Artist,MM,Chennai,,,,,
12,M1089,MANOJ UDHAYA KUMAR R,MANOJ UDHAYA KUMAR,RAVICHANDRAN,22.11.1990,male,single,"167A/1 SINTHAMANI NAGAR, PUTHUGRAMAM,",KOVILPATTI,Tuticorin,Tamil Nadu,628501,INDIA,,,,,,,manoj@mistvfx.local,dreamsky.m@gmail.com,9043143272,,,,,,1.8.2016,-,Working,Mid. Artist,MM,Chennai,,,,,
13,M1090,RAJA K,RAJA,KATHAVARAYAN,4.5.1992,male,single,"93,school street,",vairapalayam,Erode,Tamil Nadu,638003,INDIA,,,,,,,raja@mistvfx.local,krajaarena0@gmail.com      ,8807266191,,,,,,3.8.2016,-,Working,Mid. Artist,MM,Chennai,,,,,
14,M1054,VIJAY M,VIJAY,Manickam ,26.05.1994,male,single,"21,sindhan nagar,4th street, krishnam palayam, ",karungal palayam,Erode,Tamil Nadu,638003,INDIA,,,,,,,vijay@mistvfx.local,vijay10amazing1994@gmail.com,7200781164,,,,,,31.10.2016,-,Working,Mid. Artist,MM,Chennai,,,,,
15,M1098,THILIP KUMAR P,THILIP KUMAR,Palani,8.7.1995,male,single," 23/43 Police Station road,S.kodiyour, ",Jollarpet,Vellore,Tamil Nadu,635851,INDIA,,,,,,,thilip@mistvfx.local, thilipkumar08@gmail.com,9597385108,,,,,,16.08.2017,-,Working,Jr. Artist,MM,Chennai,,,,,
16,M1012,SRIDHAR M,SRIDHAR,Manaliah,14.03.1995,male,single,No.281 2nd Block 4th street K.K.D Nager ,Kodungaiyur,Chennai,Tamil Nadu,600118,INDIA,,,,,,,sridhar@mistvfx.local,sritheanimator@gmail.com,7358371834,,,,,,9.4.2017,-,Working,Jr. Artist,MM,Chennai,,,,,
18,M1013,KRISHNAMOORTHY. I,KRISHNAMOORTHY,Irusan,2.11.1992,male,married,No 258 annanagar street ,konur ,Villupuram,Tamil Nadu,605301,INDIA,,,,,,,krishnamoorthy@mistvfx.local,ikrishnav@gmail.com,9094863022,,,,,,7.5.2015,-,Working,Lead,PAINT,Chennai,,,,,
19,M1015,SELVARAJ. S,SELVARAJ,Subramaniyan,8.7.1993,male,single,"2/47KULAKKARAI STREET, ",VENGANTHUR(PO),Villupuram,Tamil Nadu,605402,INDIA,,,,,,,selvas@mistvfx.local,subuselva1993.sr@gmail.com,9894539048,,,,,,27.06.2015,-,Working,Jr. Artist,PAINT,Chennai,,,,,
20,M1034,SASI KUMAR UM,SASI KUMAR,Manoharan,10.3.1985,male,married,"182-b/73-b, Periya kinaru street, ",Ammapet,Salem,Tamil Nadu,636003,INDIA,,,,,,,sasi@mistvfx.local,um.sasi@gmail.com,9994009793,,,,,,2.9.2015,-,Working,Lead,PAINT,Chennai,,,,,
21,M1052,SIVA NATRAJ,SIVA NATRAJ,Shanmugasundaram,17.09.1984,male,married,"40 (A), Chidhambara Vinayagar Kovil Street, ",Puliangudi,Thirunelveli,Tamil Nadu,627855,INDIA,,,,,,,siva@mistvfx.local,vfxsiva@gmail.com,9789071486,,,,,,16.12.2015,-,Working,Lead,PAINT,Chennai,,,,,
22,M1055,THIYAGARAJAN,THIYAGARAJAN,Rajendran,3.5.1989,male,single,"7/52,kaliyamman kovil street,kommanchery, 83.neduvasal,ukkadai {post}",",ammapet [vazhi],papanasam[TK]",Thanjavur,Tamil Nadu,614401,INDIA,,,,,,,thiyagu@mistvfx.local,agayithbfa89@gmail.com,9944010503,,,,,,3.2.2016,-,Working,Mid. Artist,PAINT,Chennai,,,,,
23,M1063,TAMIL SELVAN G,TAMIL SELVAN,Govindhasamy ,10.3.1991,male,single,"No. 1140-1, ",Koppiliyankudikadu,Ariyalur,Tamil Nadu,621705,INDIA,,,,,,,tamil@mistvfx.local,goatamil@gmail.com,8883032805,,,,,,21.03.2016,-,Working,Mid. Artist,PAINT,Chennai,,,,,
24,M1073,SABARI DHASAN S,SABARI DHASAN,Sekhar,19.05.1994,male,single,"254 Govintharajanagar Mathur, ",Chinna Salem(TK),Villupuram,Tamil Nadu,606207,INDIA,,,,,,,sabari@mistvfx.local,sabaribfa15@gmail.com,8489727761,,,,,,18.04.2016,-,Working,Mid. Artist,PAINT,Chennai,,,,,
25,M1084,SATHYA SEELAN,SATHIYA SEELAN,RAJAGOPALAN,21.09.1994,male,single,"39, kaliamman kovil street,Melathiruppoonthuruthi,", Thiruvaiyaru TK,Thanjavur,Tamil Nadu,613103,INDIA,,,,,,,sathya@mistvfx.local,seelan.viscomm@gmail.com,7708799150,,,,,,20.06.2016,-,Working,Mid. Artist,PAINT,Chennai,,,,,
26,M1049,PAMULA RAVI KIRAN,PAMULA RAVI KIRAN,Rajendra babu,19.09.1994,male,single,"4-211,near sub station road yallavani garuvu palakollu, ",palakollu,Godavari,Andhra Pradesh,534260,INDIA,,,,,,,ravi@mistvfx.local,ravikiran.p19@gmail.com,9791081317,,,,,,8.8.2016,-,Working,Mid. Artist,PAINT,Chennai,,,,,
27,M1091,FULGUNA,FULGUNA,DAKSHINA MOORTHY,25.10.1989,male,single,"Anna Nagar Street, ",Budalur taluk,Thanjavur,Tamil Nadu,613602,INDIA,,,,,,,fulguna@mistvfx.local,fulgunamoorthy@gmail.com,7845520425,,,,,,16.08.2016,-,Working,Mid. Artist,PAINT,Chennai,,,,,
28,M1076,SITHIC BABU,SITHIC BABU,Mohammed Ismail,4.4.1990,male,single,"New Street,Naal Road,",Budalur,Thanjavur,Tamil Nadu,613602,INDIA,,,,,,,sithic@mistvfx.local,babu4sithic@gmail.com,9629180554,,,,,,13.02.2017,-,Working,Mid. Artist,PAINT,Chennai,,,,,
29,M1093,KALIRAJ V,KALIRAJ,Varadharaj,1.1.1991,male,single,"No:93, 7th street, D-sector, Annanagar west,  ",Near SBOA school,Chennai,Tamil Nadu,600040,INDIA,,,,,,,kaliraj@mistvfx.local,kaliraj1191@gmail.com,9840282803,,,,,,13.03.2017,-,Working,Jr. Artist,PAINT,Chennai,,,,,
30,M1058,FELIX RAJ P,FELIX RAJ,Pangiraj,10.7.1993,male,single,"2/967,iyyan thottam,palavanjipalayam road,",veerapandi,Tirupur,Tamil Nadu,641605,INDIA,,,,,,,felix@mistvfx.local,felixrajp10@gmail.com,7904486196,,,,,,27.03.2017,-,Working,Jr. Artist,PAINT,Chennai,,,,,
31,M1040,DIWAKAR K,DIWAKAR,Kumar,6.9.1995,male,single,"No.13, 12th Street,Jayaramnagar, mettukuppam, ",Nerkundram,Chennai,Tamil Nadu,600107,INDIA,,,,,,,diwakar@mistvfx.local,diwakarjv2@gmail.com,9003362510,,,,,,18.09.2017,-,Working,Mid. Artist,PAINT,Chennai,,,,,
32,M1014,SENTHIL S,SENTHIL,Somasundaram,17.11.1981,male,married,"57, kaliamman kovil street, Gandhi puram,", K.pudur,Madurai,Tamil Nadu,625007,INDIA,,,,,,,senthil@mistvfx.local,sensoarts@gmail.com,9840442347,,,,,,21.08.2017,-,Working,Lead,PAINT,Chennai,,,,,
33,M1101,MURUGANANDAM,MURUGANANDAM,Nagalingam,4.4.1988,male,single,"Srinivasa Nagar Haridwaramangalam Post, ",Velaingaiman TK,Thiruvarur,Tamil Nadu,612802,INDIA,,,,,,,muruganandan@mistvfx.local,namurugabfa@gmail.com,7358315094,,,,,,20.11.2017,-,Working,Jr. Artist,PAINT,Chennai,,,,,
34,M1102,RAJESHWARAN V,RAJESHWARAN,Veerasamy.R,3.7.1994,male,single,"191/71 Vellalar street, Pallavarayanpettai, ",Mayiladuthurai ,Nagapattinam,Tamil Nadu,609203,INDIA,,,,,,,rajesh@mistvfx.local,rajeshwaranvy@gmail.com,9965056172,,,,,,20.11.2017,-,Working,Jr. Artist,PAINT,Chennai,,,,,
35,M1082,PRABHU R,PRABHU,Rajendran.S,16.09.1992,male,single,"20/13 Moopakovil Kavarai street,East Kottaiyur,Mealacauvery Post,",Kumbakonam,Thanjavur,Tamil Nadu,612002,INDIA,,,,,,,prabhu@mistvfx.local,mfaprabhu@gmail.com,9543141414,,,,,,25.01.2018,-,Working,Mid. Artist,PAINT,Chennai,,,,,
36,M1114,JAGADEESH REDDY K,JAGADEESH REDDY,Saidi Reddy,13.10.1992,male,single,"H.NO 2-55,Anajipuram(V),","penpahad(M),Suryapet(D)",Suryapet,Telangana,508213,INDIA,,,,,,,reddy@mistvfx.local,kjagadeeshreddy3@gmail.com,9640960800,,,,,,21.03.2018,-,Working,Jr. Artist,PAINT,Chennai,,,,,
37,M1113,VIGNESH R,VIGNESH,Rajendran.M,24.05.1999,male,single,"East Street, Panruti(TK) Chinnapet, ",Thiruthuraiyur,Cuddalore,Tamil Nadu,607205,INDIA,,,,,,,vigneshr@mistvfx.local,vigneshvignesh25297@gmail.com,7305325536,,,,,,4.9.2018,-,Working,Jr. Artist,PAINT,Chennai,,,,,
38,M1119,STANLY P SAM,STANLY SAM,Samuel  chacko,31.08.1995,male,single,"Palamala keezh corporation, nulakulam., ","thalaxalapurambu, kottayam",Kottayam,Kerala,686605,INDIA,,,,,,,sam@mistvfx.local,stanlypsam1995@gmail.com,9747798233,,,,,,5.9.2018,-,Working,Jr. Artist,PAINT,Chennai,,,,,
39,M1120,PRIJO TJ,PRIJO,Prince T J,19.10.1994,male,single,"Thakidyil, Kanjirappally, ",Kottayam,Kottayam,Kerala,686506,INDIA,,,,,,,prijo@mistvfx.local,prijotj66gmail.com,7356651706,,,,,,5.9.2018,-,Working,Jr. Artist,PAINT,Chennai,,,,,
40,M1121,AJITH TP,AJITH,Ayyappan TP,13.02.1993,male,single,"Nduvaaittham, ",Kottaipuram,Kottayam,Kerala,686506,INDIA,,,,,,,ajith@mistvfx.local,ajithfx@gmail.com,9847162040,,,,,,5.9.2018,-,Working,Jr. Artist,PAINT,Chennai,,,,,
41,M1122,AJESH PP,AJESH,Sosan,10.3.1992,male,single,"Pulika parambil(ho), pazhur, ",Kottaipuram,Malappuram,Kerala,677571,INDIA,,,,,,,ajesh@mistvfx.local,ajeshvfx.ktpm@gmail.com,8129200592,,,,,,5.9.2018,-,Working,Jr. Artist,PAINT,Chennai,,,,,
42,M1123,RENJEESH T,RENJEESH,Sasidharan T,13.12.1992,male,single,"Onakkad,", MalappuraM,Malappuram,Kerala,677571,INDIA,,,,,,,renjeesh@mistvfx.local,renjeeshfx@gmail.com,9526846738,,,,,,5.9.2018,-,Working,Jr. Artist,PAINT,Chennai,,,,,
43,M1131,VIGNESH KUMAR M,VIGNESH KUMAR,Murugan NR,5.3.1992,male,single,"No.15/13 Santhapet street,", Bodinayakanur,Theni,Tamil Nadu,625531,INDIA,,,,,,,vigneshkumar@mistvfx.local,vignesh8220@gmail.com,8220787399,,,,,,9.3.2018,-,Working,Mid. Artist,PAINT,Chennai,,,,,
44,M1132,RAM KUMAR J,RAM KUMAR,Jai Sankar AK,11.6.1988,male,single,"No; 36 , kennedy street, ",Gk. Colony,Neyveli,Tamil Nadu,607802,INDIA,,,,,,,ram@mistvfx.local,ramkumarbfa@gmail.com,9791828006,,,,,,9.3.2018,-,Working,Mid. Artist,PAINT,Chennai,,,,,
45,M1133,SAI KUMAR B,SAI KUMAR ,B Venkatesh,8.3.1994,male,single,"8-2-293/82/c/159. B.J.R nagar, Filmnagar,", Jublie Hills,Hyderabad,Telangana,500033,INDIA,,,,,,,sai@mistvfx.local,balagonisaikumar94@gmail.com,9505000702,,,,,,26.09.2018,-,Working,Mid. Artist,PAINT,Chennai,,,,,
46,M1134,DHARAN KUMAR P,DHARAN KUMAR,Veerabadram P,7.7.1995,male,single,"1032 Siddiqnagar, ",Kothaguda,Hyderabad,Telangana,500084,INDIA,,,,,,,dharan@mistvfx.local,pdharankumar21@gmail.com,9618798542,,,,,,26.09.2018,-,Working,Mid. Artist,PAINT,Chennai,,,,,
47,M1135,SAIDULU BABU K,SAIDULU BABU ,Srinivasa Rao K,29.04.1997,male,single,"3-152, Main Road, Near Ramalayam, Kondakavuru, ",Guruvayapalem Narasaropet,Guntur,Andhra Pradesh,522601,INDIA,,,,,,,saidulu@mistvfx.local,saidulunani8@gmail.com,9494951716,,,,,,26.09.2018,-,Working,Sr. Artist,PAINT,Chennai,,,,,
48,M1108,SAKTHI S,SAKTHI,Sukumar,6.12.1987,male,single,"No:212, midil street, aziz nagar,", ulundurpet,Villupuram,Tamil Nadu,606107,INDIA,,,,,,,sakthi@mistvfx.local,atistsakthi@gmail.com,8056724208,,,,,,19.02.2018,-,Working,Jr. Artist,PAINT,Chennai,,,,,
49,M1070,NIKHILESH KOLLI,NIKHILESH KOLLI,Kolli Nagendra Vijaya Murali,26.09.1990,male,married,"H,No : 4-144  ",uthkoor village,Luxettipet,Telangana,504215,INDIA,,,,,,,nikhil@mistvfx.local,nikhil.in729@gmail.com,7092962929,,,,,,13.04.2016,-,Working,Sr. Co-Ordinator,PRODUCTION,Chennai,,,,,
50,M1103,KARTHIKRAJA ,KARTHIKRAJA ,Pandiyan,29.03.1993,male,single,"312/ Poonga nagar ,", Civil Aerodrome post ,Coimbatore,Tamil Nadu,641014,INDIA,,,,,,,karthik@mistvfx.local,karthickraja0042@gmail.com,9176792057,,,,,,20.11.2017,-,Working,Mid.Co-Ordinator,PRODUCTION,Chennai,,,,,
51,M1130,NAVEEN TEJA B,NAVEEN TEJA,Munaswamy B,4.6.1994,male,single,"14-440-4., Panchalinagae, ",Renigunta,Chithoor,Andhra Pradesh,517501,INDIA,,,,,,,naveen@mistvfx.local,navintejaprince@gmail.com,7036491935,,,,,,7.2.2018,-,Working,Jr.Co-Ordinator,PRODUCTION,Chennai,,,,,
52,M1053,DEENA DAYALAN S,DEENA DAYALAN,Sivakumar,15.09.1989,male,single,"5/476,Karupanna Goundar Street,","K.R.Palayam,Bhavani",Erode,Tamil Nadu,638301,INDIA,,,,,,,deena@mistvfx.local,deenarocks.onever@gmail.com,8122313020,,,,,,31.10.2016,-,Working,Mid. Artist,R&D,Chennai,,,,,
53,M1109,NARENDAR REDDY G,NARENDAR REDDY,Koti Reddy,11.5.1993,male,single,"1-5 Thimmapuram,Damercherla,",Wadapally Post,Nalgonda,Telangana,508207,INDIA,,,,,,,narendra@mistvfx.local,narendhar.c.c@gmail.com,8499011814,,,,,,19.02.2018,-,Working,Mid. Pipeline Developer,R&D,Chennai,,,,,
54,M1019,SELVA KUMAR. S,SELVA KUMAR ,Subramaniyan. N ,10.6.1990,male,married,"2/47KULAKKARAI STREET, ",VENGANTHUR(PO),Villupuram,Tamil Nadu,605402,INDIA,,,,,,,selvakumar@mistvfx.local,subuselvakumar@gmail.com,9524325072,,,,,,1.6.2015,-,Working,Jr. Artist,ROTO,Chennai,,,,,
55,M1022,MARI SELVAM K,MARI SELVAM,KARUPPIAH S ,5.3.1989,male,married,"11-16-7,thirumular street, ","alamelu nagar, S.Alangulam",Madurai,Tamil Nadu,625017,INDIA,,,,,,,mariselvam@mistvfx.local,selvanth.amar@gmail.com,9940915748,,,,,,16.06.2015,-,Working,Lead,ROTO,Chennai,,,,,
56,M1027,SHANKAR,SHANKAR,Perumal.G ,1.8.1989,male,married,"No: 1/A, Sakthi Nagar, 7th Street, ",Madhura voil,Chennai,Tamil Nadu,600107,INDIA,,,,,,,shankar@mistvfx.local,shamshan07@gmail.com,9677208091,,,,,,13.07.2015,-,Working,Asst. Lead,ROTO,Chennai,,,,,
57,M1029,ANANTHAN,ANANTHAN,Rangasamy,20.06.1996,male,single,"No: 7 , Ayyanar kovil stret , ",ponkadu,Peravurani,Tamil Nadu,614804,INDIA,,,,,,,ananthan@mistvfx.local,Ashanths96@gmail.com,9944204443,,,,,,24.08.2015,-,Working,Jr. Artist,ROTO,Chennai,,,,,
58,M1033,HARIHARAN. N M,HARIHARAN,MOHAN NR,1.2.1988,male,single,"17/26 krishnapuram 1street,",keelavasal(arsamaram pilliarkovil),Madurai,Tamil Nadu,625009,INDIA,,,,,,,hari@mistvfx.local,nmhari2009@gmail.com,9944204443,,,,,,24.08.2015,-,Working,Sr. Artist,ROTO,Chennai,,,,,
59,M1025,SURENDIREN P,SURENDIREN,J S PARTHASARATHI,22.05.1990,male,single,"19,Heritage venkateshwara nagar,","karambakkam,porur",Chennai,Tamil Nadu,600116,INDIA,,,,,,,surendiren@mistvfx.local,surendiren@hotmail.com,9789507943,,,,,,14.12.2015,-,Working,Jr. Artist,ROTO,Chennai,,,,,
60,M1051,MANO G,MANO,Gunasekaran ,2.7.1990,male,single,"G1, Rohan majesty, A4 srinivasa garden, Indira kumari 1st street, ","Gayathri nagar, Medavakkam",Chennai,Tamil Nadu,600100,INDIA,,,,,,,mano@mistvfx.local,imanosowat@gmail.com,8508922891,,,,,,18.12.2015,-,Working,Sr. Artist,ROTO,Chennai,,,,,
61,M1048,RAMACHANDRAN C,RAMACHANDRAN,Chakkravarthy,7.3.1996,male,single,"892 east street,near pillayar kovil,mutharasankuppam",",sathipattu(post),panruti(T.k)",Cuddalore,Tamil Nadu,607106,INDIA,,,,,,,ramachandran@mistvfx.local,ramvinoth486@gmail.com,8940782716,,,,,,14.03.2016,-,Working,Mid. Artist,ROTO,Chennai,,,,,
62,M1062,ADAIKALA PRAKASAM,ADAIKALA PRAKASAM,BASKARAN.R,26.03.1990,male,single,"217/2,PRM appartments, Muthunagar,","Perumal koil street, Pattukkottai",Thanjavur,Tamil Nadu,614602,INDIA,,,,,,,adaikalam@mistvfx.local,baprakash26@gmail.com,7868810379,,,,,,18.05.2016,-,Working,Asst. Lead,ROTO,Chennai,,,,,
63,M1085,ROBERT CLIVE J,ROBERT CLIVE,R.JOSEPH ,4.9.1990,male,single,"232,Thenkasi mainroad, KamarajNagar, Seithur(Ps),",Rajapalayam,Virudhunagar,Tamil Nadu,626121,INDIA,,,,,,,robert@mistvfx.local,mr.josephclive@gmail.com,9500910154,,,,,,1.5.2017,-,Working,Jr. Artist,ROTO,Chennai,,,,,
64,M1086,RAJANEESH K,RAJANEESH,K Bhaskar ,30.12.1991,male,married,"Dugarajapatnam (village),","vakadu (mandal),S.P.S.R ",Nellore,Andhra Pradesh,524403,INDIA,,,,,,,rajaneesh@mistvfx.local,k.rajineesh.3012@gmail.com,9666020121,,,,,,27.01.2017,-,Working,Jr. Artist,ROTO,Chennai,,,,,
65,M1083,MATHAIYA,MATHAIYA,N.M.P.SAHAYARAJAN ,19.01.1991,male,married,"Plot No: 482,jayalakshmi nagar,","pothur,thirumullaivayol",Chennai,Tamil Nadu,600062,INDIA,,,,,,,mathaiya@mistvfx.local,mathaiya619@gmail.com,8939538019,,,,,,2.1.2017,-,Working,Jr. Artist,ROTO,Chennai,,,,,
66,M1067,MAHESH KUMAR,MAHESH KUMAR,V.Raghavan,12.5.1992,male,single,"2/1,abirami nagar,2nd st,",thiruverkadu,Chennai,Tamil Nadu,60007,INDIA,,,,,,,mahesh@mistvfx.local,mageshk326@gmail.com,9543204548,,,,,,3.2.2017,-,Working,Jr. Artist,ROTO,Chennai,,,,,
67,M1038,VIGNESHWARAN N,VIGNESHWARAN,Nandhakumar,22.08.1992,male,single,"8/1logiah colony 2nd cross,",st saligramam,Chennai,Tamil Nadu,600093,INDIA,,,,,,,vignesh@mistvfx.local,vigneshvickey22@yahoo.com,9940305670,,,,,,7.3.2017,-,Working,Jr. Artist,ROTO,Chennai,,,,,
68,M1064,GUNA A,GUNA,A.Arumugam,14.11.1991,male,single,"perumal kovil street, gunamaravati, ",E.S.ezil nagar,Panruti,Tamil Nadu,607106,INDIA,,,,,,,guna@mistvfx.local,guna9636@gmail.com,8124866513,,,,,,7.3.2017,-,Working,Jr. Artist,ROTO,Chennai,,,,,
69,M1009,VIJAYAKANTH T,VIJAYAKANTH,Tholan,26.03.1993,male,married,"333,north street,", thepperumanallur,Thanjavur,Tamil Nadu,612204,INDIA,,,,,,,vijaykanth@mistvfx.local,vijaykanth.t333@gmail.com,9176977143,,,,,,8.1.2017,-,Working,Jr. Artist,ROTO,Chennai,,,,,
70,M1041,NIVOTHIS K,NIVOTHIS,G.Kandasamy,20.11.1989,male,single,"4/158 mainroad, sikkavalam,",puliyur(po),Nagapattinam,Tamil Nadu,611108,INDIA,,,,,,,nivothis@mistvfx.local,nivothis@gmail.com,7358823995,,,,,,11.6.2017,-,Working,Jr. Artist,ROTO,Chennai,,,,,
71,M1105,HARI KRISHNAN C,HARI KRISHNAN,Chandrasekar,14.09.1990,male,single,"6,18, tank street, bharathi nagar, ",guindy,Chennai,Tamil Nadu,600032,INDIA,,,,,,,harikrishnan@mistvfx.local,harikrishnan1491990@gmail.com,8438331689,,,,,,17.01.2018,-,Working,Sr. Artist,ROTO,Chennai,,,,,
72,M1112,MOHAMED AHSAN,MOHAMED AHSAN,Syed Mubarak .M,20.09.1994,male,single,"29,Bye pass road,",gandhi salai,Thiruvarur,Tamil Nadu,610001,INDIA,,,,,,,ahsan@mistvfx.local,msnfahsan@gmail.com,9003385046,,,,,,3.12.2018,-,Working,Jr. Artist,ROTO,Chennai,,,,,
73,M1111,MADHUMITHRA,MADHUMITHRA,YOGANANDHAM,4.11.1996,female,single,"240/G,Muniyappan Kovil Street,periyasemur,",Soolai,Erode,Tamil Nadu,638004,INDIA,,,,,,,madhu@mistvfx.local,madhumithra.y@gmail.com,9500933858,,,,,,3.12.2018,-,Working,Jr. Artist,ROTO,Chennai,,,,,
74,M1115,ARUN  KUMAR CH,ARUN  KUMAR,Sri Hari,8.6.1996,male,single,"Dr no: 17-7-24,",old Gajuwaka,Visakhapatnam,Andhra Pradesh,530026,INDIA,,,,,,,arun@mistvfx.local,charunkumar13433@gmail.com,9603518035,,,,,,22.03.2018,-,Working,Jr. Artist,ROTO,Chennai,,,,,
75,M1124,SIDHARTH KR,SIDHARTH,Ramachandran KA,29.06.1998,male,single,"Vandannedu, ",Idukki(Dist),Idukki,Kerala,685551,INDIA,,,,,,,sidharth@mistvfx.local,sidharthappu1235@gmail.com,9746662832,,,,,,28.05.2018,-,Working,Jr. Artist,ROTO,Chennai,,,,,
76,M1125,SATHEESH KUMAR S,SATHEESH KUMAR,Sampath kumar K,1.4.1996,male,single,"7,Asath Street, ",Senthaneerpuram,Trichy,Tamil Nadu,620004,INDIA,,,,,,,satheesh@mistvfx.local,sathishkrishnatry@gmail.com,9042715122,,,,,,28.05.2018,-,Working,Jr. Artist,ROTO,Chennai,,,,,
77,M1126,MAHESWARI Y,MAHESWARI,Subramani Y,21.06.1996,female,single,"No.47,Mani nagar,2nd street,",K.K.road,Villupuram,Tamil Nadu,605602,INDIA,,,,,,,maheshwari@mistvfx.local,mahicutiee296@gmail.com,8754001996,,,,,,6.6.2018,-,Working,Jr. Artist,ROTO,Chennai,,,,,
78,M1127,CHRISTY ALICE R,CHRISTY ALICE,Rufus Solomon E,2.2.1993,female,single,"SM hospital campus, ",Thiruppathur,Sivagangai,Tamil Nadu,630211,INDIA,,,,,,,alice@mistvfx.local,christyalice7@gmail.com,8870866337,,,,,,6.6.2018,-,Working,Jr. Artist,ROTO,Chennai,,,,,
79,M1128,MUTHUKUMARAN J,MUTHUKUMARAN,Jayagopal,8.11.1993,male,single,"Plot no: 06, Door no:01, ","chitti babu nagar 1st cross street, pallikaranai",Chennai,Tamil Nadu,600100,INDIA,,,,,,,muthu@mistvfx.local,mkumaranroto@gmail.com,9500158127,,,,,,6.6.2018,-,Working,Sr. Artist,ROTO,Chennai,,,,,
80,M1056,KAMALI C,KAMALI,Chandra Sekhar S,5.11.1996,female,single,"21, Pattikais street, ",Valavanur,Villupuram,Tamil Nadu,605602,INDIA,,,,,,,kamali@mistvfx.local,kamalichandru96@gmail.com,9047945898,,,,,,9.3.2018,-,Working,Jr. Artist,ROTO,Chennai,,,,,
81,M1137,JAIGANESH S,JAIGANESH,Sreenivasa Kumar,8.6.1992,male,single,"No.35, Sangamithra Avenue, Kannivakkam Village, ","Nellikuppam road, Kancheepuram",Kancheepuram,Tamil Nadu,600302,INDIA,,,,,,,jai@mistvfx.local,jaiganesh@protonmail.com,9677254572,,,,,,11.7.2018,-,Working,Jr. Artist,ROTO,Chennai,,,,,
82,M1138,TAMILARASAN B,TAMILARASAN,K.Bakthavachalam,24.01.1995,male,single,6/144 Vanathiru colony ,3rd Street Medavakkam,Chennai,Tamil Nadu,600100,INDIA,,,,,,,tamilarasan@mistvfx.local,tlarasan05@gmail.com,9176214679,,,,,,26.11.2018,-,Working,Mid. Artist,ROTO,Chennai,,,,,
83,M1139,SAKTHIVEL.N,SAKTHIVEL.N,S.Natarajan,23.05.1993,male,single,No.132.Main Road, Vettukadu,Villupuram,Tamil Nadu,605501,INDIA,,,,,,,sakthivel@mistvfx.local,sakthin6@gmail.com,9047597395,,,,,,12.3.2018,-,Working,Sr. Artist,ROTO,Chennai,,,,,
84,M1140,KRISHNARJUN R,KRISHNARJUN,Murali srinivasarao,2.6.1992,male,single,"3-18, main road, Nagulacheruvu,", Kapilaswarapuram,Godavari,Andhra Pradesh,533305,INDIA,,,,,,,krishnarjun@mistvfx.local,krishnarjun433@gmail.com,8374026822,,,,,,14.12.2018,-,Working,Jr. Artist,ROTO,Chennai,,,,,
85,M1141,MANIKANDAN R,MANIKANDAN,Ramesh,23.12.1996,male,single,"No.2/106, Ganga nagar, 6th cross street,", maduraviyal,Chennai,Tamil Nadu,600075,INDIA,,,,,,,mani@mistvfx.local,manikananvfx.180@gmail.com,7200165616,,,,,,17.12.2018,-,Working,Jr. Artist,ROTO,Chennai,,,,,
86,M1143,MANIMARAN.M,MANIMARAN,Mannu.C,5.6.1993,male,single,"No.14/C Pachiyappan Street,", Polur,Thiruvannamalai,Tamil Nadu,606803,INDIA,,,,,,,manir@mistvfx.local,manimaranvfx9396@gmail.com,8778737536,,,,,,21.01.2019,-,Working,Mid. Artist,ROTO,Chennai,,,,,
87,M2012,Shaan Nelson,Shaan Nelson,V P Nelson,21.08.1986,male,married,"Upasana, Chatiyath Road,", Pachalam,Cochin,Kerala,682012,INDIA,,,,,,,shaan@mistvfx.local,Shaannelson@gmail.com,7736238269,,,,,,11.11.2017,-,Working,Production Manager,PRODUCTION,Kochi,,,,,
88,M2014,Azeeem Hafeez M ,Azeeem Hafeez ,Mohammed Iqbal,13.01.1986,male,married,"3g,Kathiravan Nagar ",Udhyam Nagar Extn Podanur,Coimbatore ,Tamil Nadu,641023,INDIA,,,,,,,hafeesu@mistvfx.local,hafeesu.it@gmail.com,9865060647,,,,,,8.1.2018,-,Working,Lead,IT,Kochi,,,,,
89,M2016,Sanath M K ,Sanath ,M K ,9.5.1989,male,married,"#132, 5th Cross, G block,","Ramakrishna Nagar,",Mysore,Karmataka,570023,INDIA,,,,,,,sanath@mistvfx.local,sanathmk.cg@gmail.com,8088779107,,,,,,7.2.2015,-,Working,Lead,MM,Kochi,,,,,
90,M2017,Vipin O A ,Vipin,Aravindhan,27.05.1994,male,single,"Oduvangattil House , ",Thiruvazhiyode P O,Palakkad,Kerala,679514,INDIA,,,,,,,vipin@mistvfx.local,getvipinaravind@gmail.com,8762506425,,,,,,31.07.2017,-,Working,Jr. Artist,MM,Kochi,,,,,
91,M2018,Jeevan John ,Jeevan,John Joseph ,2.4.1993,male,single,"Puthenpurackal House, vebarzassery , ","thuruthy P O , ",Changanaserry,Kerala,686635,INDIA,,,,,,,jeevan@mistvfx.local,giftofjeevan@gmail.com,9020701051,,,,,,18.10.2015,-,Working,Jr. Artist,MM,Kochi,,,,,
92,M2019,Mohammad Shafeeque K K ,Mohammad Shafeeque, K K ,5.3.1993,male,single,"Koormath Kolothiyil House, ",Kakkad P O,Malappuram ,Kerala,676306,INDIA,,,,,,,shafeeque@mistvfx.local,shafeequevfx@gmail.com,9567655615,,,,,,12.10.2016,-,Working,Sr. Artist,PAINT,Kochi,,,,,
93,M2020,Thefsir P K ,Thefsir ,P K ,25.02.1992,male,married,"Pachakunnath House, ",Codacal P O,Malappuram,Kerala,676108,INDIA,,,,,,,thefsir@mistvfx.local,thefsivfx@gmail.com,9946964269,,,,,,19.10.2016,-,Working,Mid. Artist,PAINT,Kochi,,,,,
94,M2021,Nandu V K ,Nandu,Kuttappan,14.10.1994,male,single,"Vattathara House,", Kalady P O, Chengal,Kerala,683574,INDIA,,,,,,,nandu@mistvfx.local,nanduvk851@gmail.com,9746930879,,,,,,1.12.2016,-,Working,Jr. Artist,PAINT,Kochi,,,,,
95,M2022,Rakesh Vinobagandhi I,Rakesh Vinobagandhi,Ilangovan,9.12.1990,male,single,"6/535,gandhi street, ",Lakshmi nagar,Virudhunagar ,Tamil Nadu,626001,INDIA,,,,,,,rakesh@mistvfx.local,rakesh.dds@gmail.com,9787429143,,,,,,18.09.2015,-,Working,Asst. Lead,ROTO,Kochi,,,,,
96,M2023,Ameer Suhail P,Ameer Suhail ,P,6.6.1993,male,married,"Peruppara House, Chokkadu , ",Pullancode P O,Udarampoyil,Kerala,683574,INDIA,,,,,,,ameer@mistvfx.local,ameersuhailvj@gmail.com,9946216415,,,,,,11.9.2017,-,Working,Jr. Artist,ROTO,Kochi,,,,,
97,M2024,Muhammed Suhail P K ,Muhammed Suhail  ,P K,10.5.1996,male,single,"Parakkandi House,", Karuvambrum P O,MANJERRI,Kerala,676122,INDIA,,,,,,,Suhail@mistvfx.local,mdsuhailpkmji@gmail.com,8157022823,,,,,,11.9.2017,-,Working,Jr. Artist,ROTO,Kochi,,,,,
98,M2025,Vishnuraj R ,Vishnuraj,N P Rajan ,14.12.1991,male,single,"Neelakesuveli,Varanadu.p.o, ",Cherthala,Alappuzha,Kerala,688539,INDIA,,,,,,,vishnurajr@mistvfx.local,raj991@gmail.com,9400235531,,,,,,18.09.2015,-,Working,Asst. Lead,ROTO,Kochi,,,,,
99,M2026,Vishnuraj M P ,Vishnuraj,Padmanabhan ,2.2.1995,male,single,"Madathittayil (House),Kidanganad(po),","Panayambam,Sulthan Bathery",Wayanad,Kerala,673592,INDIA,,,,,,,vishnump@mistvfx.local,vishnurajmp8@gmail.com,9087025219,,,,,,18.09.2015,-,Working,Asst. Lead,ROTO,Kochi,,,,,
100,M2027,Akhil Jose,Akhil,Jose T P ,14.06.1995,male,single,"Thanivilayil House, ",Karukutty P O,Angamaly,Kerala,683576,INDIA,,,,,,,vishnurajr@mistvfx.local,akhiljose1495kid@gmail.com,7736245201,,,,,,18.09.2015,-,Working,Lead,ROTO,Kochi,,,,,
101,M2028,Shiji L S,Shiji ,L S,20.07.1989,female,single,"TC 47/417 Pankaj , Melaranoor , ",Karamana P O,Trivandrum,Kerala,695605,INDIA,,,,,,,shiji@mistvfx.local,shijisre@gmail.com,9791031427,,,,,,3.7.2017,-,Working,Mid. Artist,ROTO,Kochi,,,,,
102,M2029,Eby Ershad,Eby ,Ershad,23.07.1995,female,single,"Ellathuparambil House, Nalukody P.O, ",Changanacherry,Kottayam,Kerala,686548,INDIA,,,,,,,Eby@mistvfx.local,ebyershad@gmail.com,9791027840,,,,,,2.12.2015,-,Working,Mid. Artist,ROTO,Kochi,,,,,
103,M2030,Mohammed Arshak V ,Mohammed Arshak ,V ,28.04.1999,male,single,"Padath House , ","Valencheri, Marayur P O",Malappuram,Kerala,676552,INDIA,,,,,,,Arshak@mistvfx.local,arsarshak02@gmail.com,9995740313,,,,,,19.03.2018,-,Working,Jr. Artist,ROTO,Kochi,,,,,
104,M2031,Rinju K,Rinju,Balakrishnan ,2.2.1990,male,single,"Kaliyarthodi House , Karuvambram House, ",Manjeri,Malappuram,Kerala,676123,INDIA,,,,,,,Rinju@mistvfx.local,rinjubalakrishnan.k@gmail.com,8111807220,,,,,,19.03.2018,-,Working,Jr. Artist,ROTO,Kochi,,,,,
105,M2032,Muhammed Rafeeq P,Muhammed Rafeeq,Ummer koya P ,23.09.1998,male,single,"Pottayil House, Amappoyil, Vellayoor P O , ",Turavur,Malappuram,Kerala,688532,INDIA,,,,,,,rafeeq@mistvfx.local,rafeeqmuhammed77@gmail.com,7558891408,,,,,,19.03.2018,-,Working,Jr. Artist,ROTO,Kochi,,,,,
106,M2033,Muhammed Sabeeb P,Muhammed Sabeeb ,P,25.05.1994,male,single,"Pezungaden (H),", Poongode P O,Malappuram,Kerala,679327,INDIA,,,,,,,sabeeb@mistvfx.local,shabeebp.pgd@gmail.com,9544588497,,,,,,19.03.2018,-,Working,Jr. Artist,ROTO,Kochi,,,,,
107,M2034,Hrudya Atholi,Hrudya Atholi,Narayanathol ,26.10.1990,female,single,"Athol House , ",Parapanangadi,Malappuram,Kerala,676303,INDIA,,,,,,,hrudya@mistvfx.local,hrudyaatholi@gmail.com,9539917765,,,,,,19.03.2018,-,Working,Jr. Artist,ROTO,Kochi,,,,,
108,M2035,Ajmal N K ,Ajmal ,N K ,29.08.1995,male,single,"Naduvilaparambil House, ",Edathala North P O ,Aluva ,Kerala,683561,INDIA,,,,,,,Ajmal@mistvfx.local,ajuajmal285@gmail.com,9048240220,,,,,,19.03.2018,-,Working,Jr. Artist,ROTO,Kochi,,,,,
109,M2036,Dijith T ,Dijith ,T ,24.05.1993,male,single,"Theekunnan House , Kuttumunda Vaniyambalam P O ,", Wandoor,Malappuram,Kerala,679339,INDIA,,,,,,,dijith@mistvfx.local,jithuwdr@gmail.com,9809115577,,,,,,19.03.2018,-,Working,Jr. Artist,ROTO,Kochi,,,,,
110,M2037,Jesno Antony,Jesno,Antony T O ,2.7.1994,male,single,"Thachil House, Aduvassery P O ,", Kuttippuzha,Ernakulam ,Kerala,683578,INDIA,,,,,,,Jesno@mistvfx.local,jjeessnnoo@gmail.com,7559970702,,,,,,19.03.2018,-,Working,Jr. Artist,ROTO,Kochi,,,,,
111,M2038,Musadique P ,Musadique ,P ,5.3.1995,male,single,"Paikkadan House ,", Poolapadam Pather P O ,Malappuram,Kerala,676334,INDIA,,,,,,,musadique@mistvfx.local,musadiquem4f@gmail.com,9895386024,,,,,,19.03.2018,-,Working,Jr. Artist,ROTO,Kochi,,,,,
112,M2039,Sabirsha M H ,Sabirsha ,M H ,21.03.1997,male,single,"Mezhakkattil House , ",Edathala North,Aluva ,Kerala,683561,INDIA,,,,,,,sabirsha@mistvfx.local,sabirshahabeeb@gmail.com,9747873186,,,,,,19.03.2018,-,Working,Jr. Artist,ROTO,Kochi,,,,,
113,M2040,Anoop K ,Anoop,Prakashan K ,10.10.1990,male,married,"126/1646 C Mattanunji Nilam Paramba P O , ",Kommeri P O,Calicut,Kerala,673007,INDIA,,,,,,,anoop@mistvfx.local,anoop.vfxpro@gmail.com,9539362985,,,,,,28.03.2018,-,Working,Jr. Artist,ROTO,Kochi,,,,,
114,M2041,Mithun Satheesh ,Mithun , Satheesh ,12.3.1997,male,single,"Kaanathil House , ",Kavakkadu P O,Malappuram,Kerala,686668,INDIA,,,,,,,satheesh@mistvfx.local,midhunsatheesh313@gmail.com,9562384295,,,,,,28.03.2018,-,Working,Jr. Artist,ROTO,Kochi,,,,,
115,M2042,Vimal N R ,Vimal,Reju N k ,10.3.1990,male,single,"Nambisserikalam House, ",Kumarakom P O  ,Kottayam,Kerala,686563,INDIA,,,,,,,vimal@mistvfx.local,vimal.nr7@gmail.com,9995267679,,,,,,28.03.2018,-,Working,Jr. Artist,ROTO,Kochi,,,,,
116,M2043,Krishnadas P S ,Krishnadas,Subramanian P K ,16.03.1996,male,single,"Puthenmadom House , Mulanthuruthy P O , ",Eranakulam - ,Ernakulam ,Kerala,682314,INDIA,,,,,,,krishnadas@mistvfx.local,crixdazy@gmail.com,7559968055,,,,,,28.03.2018,-,Working,Jr. Artist,ROTO,Kochi,,,,,
119,M2047,Arshad C ,Arshad ,C ,20.05.1998,male,single,"Charuvila House , Punnappala P O , ","Chellithode, Thiruvali",Malappuram,Kerala,676123,INDIA,,,,,,,arshad@mistvfx.local,arshadc509@gmail.com,8593896211,,,,,,3.7.2017,-,Working,Jr. Artist,ROTO,Kochi,,,,,
120,M2048,Kiran Manohar,Kiran ,Manohar,14.12.1986,male,married,"Alappattu House , ",Plassanal P O,Kottayam,Kerala,686579,INDIA,,,,,,,Kiran@mistvfx.local,kiranmanohar@gmail.com,9744253911,,,,,,19.02.2018,-,Working,Sr. Artist,ROTO,Kochi,,,,,
121,M2049,Amal Vincent ,Amal ,Vincent ,26.08.1996,male,single,"Kozhikkadan House, Chengal , ",Kalady P O,Malappuram,Kerala,683574,INDIA,,,,,,,amal@mistvfx.local,itsmeamalvincent@gmail.com,9020626073,,,,,,18.09.2015,-,Working,Mid. Artist,ROTO,Kochi,,,,,
122,M2050,Rukhiya.P,Rukhiya,Moideenkutty,14.04.1998,female,single,"Pookkayil House,B.P angadi P O tirur",-,Malappuram,Kerala,676102,INDIA,,,,,,,rukhiya@mistvfx.local,rukhiya.vfx@gmail.com,7092036952,,,,,,6.8.2018,-,Working,Jr. Artist,ROTO,Kochi,,,,,
123,M2052,Harikrishnan. K ,Harikrishnan,Krishnakumar,29.12.1992,male,single,"Vattappilly House,", P.O Thalikulam,Malappuram,Kerala,680569,INDIA,,,,,,,Harikrishna@mistvfx.local,hkrish992@gmail.com,7736848404,,,,,,8.10.2018,-,Working,Sr.Executive,HR,Kochi,,,,,
124,M2053,Pranav B,Pranav ,B,9.1.1995,male,single,"5-05-F, DD GOLDEN GATE,Palachuvadu,","Kakkanad, Kochi,",Kochi,Kerala,695037,INDIA,,,,,,,pran@mistvfx.local,bijipranav95@gmail.com,7994096767,,,,,,1.11.2018,-,Working,Jr.Co-Ordinator,PRODUCTION,Kochi,,,,,
125,M2055,Gokulakkannan,Gokulakkannan,Lakshmi Narayanan,13.06.1994,male,single,"140, TMM Puram,", Chennimalai,Erode,Tamil Nadu,638051,INDIA,,,,,,,gokul@mistvfx.local,chmlgokul@gmail.com,8489513031,,,,,,20.12.2018,-,Working,Jr. Artist,MM,Kochi,,,,,
126,M2056,K S JEEVAN,JEEVAN,SEENIVASAN K R,9.6.1998,male,single,"4/215C PANDIYAN STREET SOURASHTRA PURAM , ",VANDIYUR,Madurai,Tamil Nadu,625020,INDIA,,,,,,,jeevan@mistvfx.local,jeevan9159@gmail.com,8428602624,,,,,,11.2.2019,-,Working,Trainee,MM,Kochi,,,,,
127,M2057,S SAKTHIVEL,SAKTHIVEL,N SUBBURAM,15.11.1998,male,single,"2460 A.S MAHAL OPP STREET , ",VILLAPURAM,Madurai,Tamil Nadu,625012,INDIA,,,,,,,sakthivel@mistvfx.local,sakthivelkumar005@gmail.com,9092323951,,,,,,11.2.2019,-,Working,Trainee,MM,Kochi,,,,,
128,M2058,MPS RAM VIGNESH,RAM VIGNESH,P SUBRAMANIAM,9.5.1997,male,single,"NO 7 THIRUVALLUVAR STREET ,", BBKULAM,Madurai,Tamil Nadu,625002,INDIA,,,,,,,vigneshr@mistvfx.local,merakiram9@gmail.com,9600355737,,,,,,11.2.2019,-,Working,Trainee,MM,Kochi,,,,,
129,M2059,SALMAN KHAN,SALMAN KHAN,SALEEM E.A,21.06.1994,male,single,"Rukku Manzil 1/168 Near CSI Hospital, ",Kulashekaram,Kanyakumari,Tamil Nadu,629153,INDIA,,,,,,,salmank@mistvfx.local,salmaanghazawan@gmail.com,9496964872,,,,,,25.02.2019,-,Working,Jr.Co-Ordinator,PRODUCTION,Kochi,,,,,
130,M2060,SACHIN SAJI,SACHIN,Saji MT,2.1.1997,male,single,Makkocham Parambil ,Ashoka Road Kaloor,Kochi,Kerala,682017,INDIA,,,,,,,sachin@mistvfx.local,mastersachin666@gmail.com,8089962068,,,,,,25.02.2019,-,Working,Trainee,MM,Kochi,,,,,
131,M2061,Joshwa,Johnson,K.N Johnson,15.09.1995,male,single,"Kaniyampuram House, ",Palliport P.O,Munambam,Kerala,683515,INDIA,,,,,,,joswa@mistvfx.local,joshwajo88@gmail.com,9497588046,,,,,,4.3.2019,-,Working,Jr. Artist,MM,Kochi,,,,,
